Interface to the Reptile Database for Querying and Retrieving Taxonomic Data • reptiledbr
…
#>    <chr>               <chr>  <chr>        <chr>                                
#>  1 Anolis carolinensis Anolis carolinensis USA (E Texas, SE Oklahoma, S Arkansa…
#>  2 Anolis carolinensis Anolis carolinensis Bahamas, Grand Cayman Islands (HR 33…
#>  3 Anolis carolinensis Anolis carolinensis Introduced to Hawaii (fide MCKEOWN 1…
#>  4 Anolis carolinensis Anolis carolinensis Introduced to Japan (Chichizima Is. …
#>  5 Anolis carolinensis Anolis carolinensis Introduced to Micronesia and Guam (G…
#>  6 Anolis carolinensis Anolis carolinensis May have been introduced to Tenerife…
#>  7 Anolis carolinensis Anolis carolinensis Introduced to Northern Mariana Islan…
#>  8 Anolis carolinensis Anolis carolinensis Introduced to Mexico (Nuevo León, Lu…
#>  9 Anolis carolinensis Anolis carolinensis Introduced to California fide Hansen…
#> 10 Anolis carolinensis Anolis carolinensis baccatus: Mexico; Type locality: Mex…
#> 11 Anolis carolinensis Anolis carolinensis seminolus: USA (Florida); Type local…
#> 
#> $synonyms
#> # A tibble: 34 × 4
#>    input_name          genus  species      synonym                              
#>    <chr>               <chr>  <chr>        <chr>                                
#>  1 Anolis carolinensis Anolis carolinensis Anolius carolinensis VOIGT in CUVIER…
#>  2 Anolis carolinensis Anolis carolinensis Lacerta principalis LINNAEUS 1758 (f…
#>  3 Anolis carolinensis Anolis carolinensis Ameiua bullaris MEYER 1795: 29 (erro…
#>  4 Anolis carolinensis Anolis carolinensis Anolis bullaris — DAUDIN 1802: 69 (p…
#>  5 Anolis carolinensis Anolis carolinensis Agama bullaris — LINK 1807: 58       
#>  6 Anolis carolinensis Anolis carolinensis Agama strumosa — LINK 1807: 59       
#>  7 Anolis carolinensis Anolis carolinensis Anolis strumosa — HARLAN 1835: 143   
#>  8 Anolis carolinensis Anolis carolinensis Anolis Carolinensis — DUMÉRIL & BIBR…
#>  9 Anolis carolinensis Anolis carolinensis Anolis podargicus RICHARDSON 1837: 2…
#> 10 Anolis carolinensis Anolis carolinensis Dactyloa (Ctenocercus) carolinensis …
#> # ℹ 24 more rows
…
#> 12 Anolis carolinensis Anolis carolinensis Type species: Anolis bullaris DAUDIN…
#> 13 Anolis carolinensis Anolis carolinensis Key: for a key to (mainland) species…
#> 14 Anolis carolinensis Anolis carolinensis Phylogenetics (genus). For a compreh…
#> 15 Anolis carolinensis Anolis carolinensis Karyotype: 2n=36, XY (males) or XX (…
#> 16 Anolis carolinensis Anolis carolinensis Thermobiology: Salazar et al. 2019 c…
#> 17 Anolis carolinensis Anolis carolinensis Reference images: see Uetz et al. 20…
#> 
#> $etymology
#> # A tibble: 1 × 4
#>   input_name          genus  species      etymology_detail                      
#>   <chr>               <chr>  <chr>        <chr>                                 
#> 1 Anolis carolinensis Anolis carolinensis Named after the Carolinas where the s…
#> 
#> $references
#> # A tibble: 251 × 4
#>    input_name          genus  species      reference                            
#>    <chr>               <chr>  <chr>        <chr>                                
#>  1 Anolis carolinensis Anolis carolinensis Alföldi J, Di Palma F, Grabherr M, W…
#>  2 Anolis carolinensis Anolis carolinensis Alibardi, L. 2021. Limb regeneration…
#>  3 Anolis carolinensis Anolis carolinensis Alibardi, Lorenzo 2021. Immunolocali…
#>  4 Anolis carolinensis Anolis carolinensis Allen, Morrow J. 1932. A survey of t…
#>  5 Anolis carolinensis Anolis carolinensis Andersson, L.G. 1900. Catalogue of L…
#>  6 Anolis carolinensis Anolis carolinensis Andrews, R.M. 1985. Oviposition freq…
#>  7 Anolis carolinensis Anolis carolinensis Andrews, R.M. 1985. Mate Choice by F…
#>  8 Anolis carolinensis Anolis carolinensis Arnold, Debbie M. 1997. Geographic D…
#>  9 Anolis carolinensis Anolis carolinensis Art, G.R. & D.L. Claussen 1982. The …
#> 10 Anolis carolinensis Anolis carolinensis Ballinger, R.E. 1973. Experimental E…
#> # ℹ 241 more rows
…
