…
Returns a list containing only the requested attribute tibbles.

### Example

``` r
# Extract only synonyms, higher taxa, and common names
selected_info <- format_selected_attributes(
  reptile_data = reptile_data,
  attributes = c("Synonym", "Higher Taxa", "Common Names"),
  quiet = TRUE
)

# Access the selected information
selected_info$Synonym
#> # A tibble: 79 × 4
#>    input_name    genus    species synonym                                       
#>    <chr>         <chr>    <chr>   <chr>                                         
#>  1 Lachesis muta Lachesis muta    Crotalus mutus LINNAEUS 1766: 373             
#>  2 Lachesis muta Lachesis muta    Coluber crotalinus GMELIN 1789: 1094          
#>  3 Lachesis muta Lachesis muta    Scytale catenatus LATREILLE in SONNINI and LA…
#>  4 Lachesis muta Lachesis muta    Scytale ammodytes LATREILLE in SONNINI and LA…
#>  5 Lachesis muta Lachesis muta    Coluber alecto SHAW 1802: 405                 
#>  6 Lachesis muta Lachesis muta    Lachesis mutus — DAUDIN 1803: 351             
#>  7 Lachesis muta Lachesis muta    Lachesis ater — DAUDIN 1803: 354              
#>  8 Lachesis muta Lachesis muta    Trigonocephalus ammodytes — OPPEL 1811: 390   
#>  9 Lachesis muta Lachesis muta    Cophias crotalinus — MERREM 1820: 144         
#> 10 Lachesis muta Lachesis muta    Trigonocephalus crotalinus — SCHINZ 1822: 144 
#> # ℹ 69 more rows
…
