…
The `data` column contains nested tibbles with all the information
scraped from each species page.

### 4. Formatting data with specialized functions

`reptiledbr` provides several specialized functions to extract and
format specific types of information:

#### Synonyms

``` r
format_synonyms(reptile_data)
#> # A tibble: 79 × 4
#>    input_name    genus    species synonym                                       
#>    <chr>         <chr>    <chr>   <chr>                                         
#>  1 Lachesis muta Lachesis muta    Crotalus mutus LINNAEUS 1766: 373             
#>  2 Lachesis muta Lachesis muta    Coluber crotalinus GMELIN 1789: 1094          
#>  3 Lachesis muta Lachesis muta    Scytale catenatus LATREILLE in SONNINI and LA…
#>  4 Lachesis muta Lachesis muta    Scytale ammodytes LATREILLE in SONNINI and LA…
#>  5 Lachesis muta Lachesis muta    Coluber alecto SHAW 1802: 405                 
#>  6 Lachesis muta Lachesis muta    Lachesis mutus — DAUDIN 1803: 351             
#>  7 Lachesis muta Lachesis muta    Lachesis ater — DAUDIN 1803: 354              
#>  8 Lachesis muta Lachesis muta    Trigonocephalus ammodytes — OPPEL 1811: 390   
#>  9 Lachesis muta Lachesis muta    Cophias crotalinus — MERREM 1820: 144         
#> 10 Lachesis muta Lachesis muta    Trigonocephalus crotalinus — SCHINZ 1822: 144 
#> # ℹ 69 more rows
```
…
#### References

``` r
format_references(reptile_data)
#> # A tibble: 421 × 4
#>    input_name    genus    species reference                                     
#>    <chr>         <chr>    <chr>   <chr>                                         
#>  1 Lachesis muta Lachesis muta    Alves, Fátima Q.; AntÃ´nio J. S. ArgÃ´lo, and…
#>  2 Lachesis muta Lachesis muta    Amaral, A. do 1925. On the Oviparity of Lache…
#>  3 Lachesis muta Lachesis muta    Amaral,A. do 1926. 4.a nota de nomenclatura O…
#>  4 Lachesis muta Lachesis muta    Andersson, L.G. 1899. Catalogue of Linnean ty…
#>  5 Lachesis muta Lachesis muta    ANDRADE LIMA, J.H., DIAS, E.G., COSTA, R.D.L.…
#>  6 Lachesis muta Lachesis muta    Araujo Filho, João Antonio de, Cícero Ricardo…
#>  7 Lachesis muta Lachesis muta    Arteaga, A.; Bustamante, L.; Vieira, J. 2024.…
#>  8 Lachesis muta Lachesis muta    Avila-Pires, Teresa C.S.; Kleiton R. Alves-Si…
#>  9 Lachesis muta Lachesis muta    Barbour, Thomas 1930. The bushmaster in the C…
#> 10 Lachesis muta Lachesis muta    Barrio-Amorós, Cesar L.; Greivin Corrales, Sy…
#> # ℹ 411 more rows
```
…
